[
{
    "book":"Matthew",
    "chapter" : 1,
    "chapterheading" : "Birth and Reception of the King"
  },{
    "book":"Matthew",
    "chapter" : 2,
    "chapterheading" : "Birth and Reception of the King"
  },{
    "book":"Matthew",
    "chapter" : 3,
    "chapterheading" : "Baptism of the King"
  },{
    "book":"Matthew",
    "chapter" : 4,
    "chapterheading" : "Testing of the King"
  },{
    "book":"Matthew",
    "chapter" : 5,
    "chapterheading" : "Sermon on the Mount"
  },{
    "book":"Matthew",
    "chapter" : 6,
    "chapterheading" : "Sermon on the Mount"
  },{
    "book":"Matthew",
    "chapter" : 7,
    "chapterheading" : "Sermon on the Mount"
  },{
    "book":"Matthew",
    "chapter" : 8,
    "chapterheading" : "Authority of the King"
  },{
    "book":"Matthew",
    "chapter" : 9,
    "chapterheading" : "Authority of the King"
  },{
    "book":"Matthew",
    "chapter" : 10,
    "chapterheading" : "Authority of the King"
  },{
    "book":"Matthew",
    "chapter" : 11,
    "chapterheading" : "Opposition to the King"
  },{
    "book":"Matthew",
    "chapter" : 12,
    "chapterheading" : "Opposition to the King"
  },{
    "book":"Matthew",
    "chapter" : 13,
    "chapterheading" : "Parables of the King"
  },{
    "book":"Matthew",
    "chapter" : 14,
    "chapterheading" : "Revelation and Instruction of the King"
  },{
    "book":"Matthew",
    "chapter" : 15,
    "chapterheading" : "Revelation and Instruction of the King"
  },{
    "book":"Matthew",
    "chapter" : 16,
    "chapterheading" : "Revelation and Instruction of the King"
  },{
    "book":"Matthew",
    "chapter" : 17,
    "chapterheading" : "Revelation and Instruction of the King"
  },{
    "book":"Matthew",
    "chapter" : 18,
    "chapterheading" : "Revelation and Instruction of the King"
  },{
    "book":"Matthew",
    "chapter" : 19,
    "chapterheading" : "Revelation and Instruction of the King"
  },{
    "book":"Matthew",
    "chapter" : 20,
    "chapterheading" : "Revelation and Instruction of the King"
  },{
    "book":"Matthew",
    "chapter" : 21,
    "chapterheading" : "Formal Presentation of the King"
  },{
    "book":"Matthew",
    "chapter" : 22,
    "chapterheading" : "Formal Presentation of the King"
  },{
    "book":"Matthew",
    "chapter" : 23,
    "chapterheading" : "Formal Presentation of the King"
  },{
    "book":"Matthew",
    "chapter" : 24,
    "chapterheading" : "Olivet Discourse"
  },{
    "book":"Matthew",
    "chapter" : 25,
    "chapterheading" : "Olivet Discourse"
  },{
    "book":"Matthew",
    "chapter" : 26,
    "chapterheading" : "Crucifixion of the King"
  },{
    "book":"Matthew",
    "chapter" : 27,
    "chapterheading" : "Crucifixion of the King"
  },{
    "book":"Matthew",
    "chapter" : 28,
    "chapterheading" : "Resurrection of the King"
  }
  ,{
    "book":"Mark",
    "chapter" : 1,
    "chapterheading" : "Preparation of the Servant"
  },{
    "book":"Mark",
    "chapter" : 2,
    "chapterheading" : "Galilean Ministry of the Servant"
  },{
    "book":"Mark",
    "chapter" : 3,
    "chapterheading" : "Galilean Ministry of the Servant"
  },{
    "book":"Mark",
    "chapter" : 4,
    "chapterheading" : "Galilean Ministry of the Servant"
  },{
    "book":"Mark",
    "chapter" : 5,
    "chapterheading" : "Galilean Ministry of the Servant"
  },{
    "book":"Mark",
    "chapter" : 6,
    "chapterheading" : "Galilean Ministry of the Servant"
  },{
    "book":"Mark",
    "chapter" : 7,
    "chapterheading" : "Galilean Ministry of the Servant"
  },{
    "book":"Mark",
    "chapter" : 8,
    "chapterheading" : "Galilean Ministry of the Servant"
  },{
    "book":"Mark",
    "chapter" : 9,
    "chapterheading" : "Galilean Ministry of the Servant"
  },{
    "book":"Mark",
    "chapter" : 10,
    "chapterheading" : "Minstry Enroute to Jerusalem"
  },{
    "book":"Mark",
    "chapter" : 11,
    "chapterheading" : "Jerusalem Ministry of the Servant"
  },{
    "book":"Mark",
    "chapter" : 12,
    "chapterheading" : "Jerusalem Ministry of the Servant"
  },{
    "book":"Mark",
    "chapter" : 13,
    "chapterheading" : "Jerusalem Ministry of the Servant"
  },{
    "book":"Mark",
    "chapter" : 14,
    "chapterheading" : "Crucifixion of the Servant"
  },{
    "book":"Mark",
    "chapter" : 15,
    "chapterheading" : "Crucifixion of the Servant"
  },{
    "book":"Mark",
    "chapter" : 16,
    "chapterheading" : "Resurrection of the Servant"
  }
  ,{
    "book":"Luke",
    "chapter" : 1,
    "chapterheading" : "The Identification of the Son of Man with Men"
  }
  ,{
    "book":"Luke",
    "chapter" : 2,
    "chapterheading" : "The Identification of the Son of Man with Men"
  },{
    "book":"Luke",
    "chapter" : 3,
    "chapterheading" : "The Identification of the Son of Man with Men"
  },{
    "book":"Luke",
    "chapter" : 4,
    "chapterheading" : "The Identification of the Son of Man with Men"
  },{
    "book":"Luke",
    "chapter" : 5,
    "chapterheading" : "Ministry of the Son of Man to Men"
  },{
    "book":"Luke",
    "chapter" : 6,
    "chapterheading" : "Ministry of the Son of Man to Men"
  },{
    "book":"Luke",
    "chapter" : 7,
    "chapterheading" : "Ministry of the Son of Man to Men"
  },{
    "book":"Luke",
    "chapter" : 8,
    "chapterheading" : "Ministry of the Son of Man to Men"
  },{
    "book":"Luke",
    "chapter" : 9,
    "chapterheading" : "Ministry of the Son of Man to Men"
  },{
    "book":"Luke",
    "chapter" : 10,
    "chapterheading" : "Ministry of the Son of Man to Men"
  },{
    "book":"Luke",
    "chapter" : 11,
    "chapterheading" : "Rejection of the Son of Man by Men"
  },{
    "book":"Luke",
    "chapter" : 12,
    "chapterheading" : "Rejection of the Son of Man by Men"
  },{
    "book":"Luke",
    "chapter" : 13,
    "chapterheading" : "Rejection of the Son of Man by Men"
  },{
    "book":"Luke",
    "chapter" : 14,
    "chapterheading" : "Rejection of the Son of Man by Men"
  },{
    "book":"Luke",
    "chapter" : 15,
    "chapterheading" : "Rejection of the Son of Man by Men"
  },{
    "book":"Luke",
    "chapter" : 16,
    "chapterheading" : "Rejection of the Son of Man by Men"
  },{
    "book":"Luke",
    "chapter" : 17,
    "chapterheading" : "Rejection of the Son of Man by Men"
  },{
    "book":"Luke",
    "chapter" : 18,
    "chapterheading" : "Rejection of the Son of Man by Men"
  },{
    "book":"Luke",
    "chapter" : 19,
    "chapterheading" : "Rejection of the Son of Man by Men"
  },{
    "book":"Luke",
    "chapter" : 20,
    "chapterheading" : "Rejection of the Son of Man by Men"
  },{
    "book":"Luke",
    "chapter" : 21,
    "chapterheading" : "Suffering of the Son of Man for Men"
  },{
    "book":"Luke",
    "chapter" : 22,
    "chapterheading" : "Suffering of the Son of Man for Men"
  },{
    "book":"Luke",
    "chapter" : 23,
    "chapterheading" : "Suffering of the Son of Man for Men"
  },{
    "book":"Luke",
    "chapter" : 24,
    "chapterheading" : "Resurrection of the Son of Man before Men"
  },{
    "book":"John",
    "chapter" : 1,
    "chapterheading" : "Christ the Word"
  }
  ,{
    "book":"John",
    "chapter" : 2,
    "chapterheading" : "Christ the Creator"
  },{
    "book":"John",
    "chapter" : 3,
    "chapterheading" : "Christ the Saviour"
  },{
    "book":"John",
    "chapter" : 4,
    "chapterheading" : "Christ the Water of Life"
  },{
    "book":"John",
    "chapter" : 5,
    "chapterheading" : "Christ the Judge"
  },{
    "book":"John",
    "chapter" : 6,
    "chapterheading" : "Christ the Bread of Life"
  },{
    "book":"John",
    "chapter" : 7,
    "chapterheading" : "Christ the Heavenly One"
  },{
    "book":"John",
    "chapter" : 8,
    "chapterheading" : "Christ the Light of the World"
  },{
    "book":"John",
    "chapter" : 9,
    "chapterheading" : "Christ the Light of the World"
  },{
    "book":"John",
    "chapter" : 10,
    "chapterheading" : "Christ the Good Shepherd"
  },{
    "book":"John",
    "chapter" : 11,
    "chapterheading" : "Christ the Resurrection and the Life"
  },{
    "book":"John",
    "chapter" : 12,
    "chapterheading" : "Christ the Center of Attraction"
  },{
    "book":"John",
    "chapter" : 13,
    "chapterheading" : "Christ the Advocate"
  },{
    "book":"John",
    "chapter" : 14,
    "chapterheading" : "Christ the Coming One"
  },{
    "book":"John",
    "chapter" : 15,
    "chapterheading" : "Christ the Vine"
  },{
    "book":"John",
    "chapter" : 16,
    "chapterheading" : "Christ the Pre-Eminent One"
  },{
    "book":"John",
    "chapter" : 17,
    "chapterheading" : "Christ the High Priest"
  },{
    "book":"John",
    "chapter" : 18,
    "chapterheading" : "Christ the Faithful and Obedient One unto Death"
  },{
    "book":"John",
    "chapter" : 19,
    "chapterheading" : "Christ the Faithful and Obedient One unto Death"
  },{
    "book":"John",
    "chapter" : 20,
    "chapterheading" : "Christ the Victorious One"
  },{
    "book":"John",
    "chapter" : 21,
    "chapterheading" : "Christ the Great Shepherd"
  },{
    "book":"Acts",
    "chapter" : 1,
    "chapterheading" : "Commission and Ascension"
  },{
        "book":"Acts",
    "chapter" : 2,
    "chapterheading" : "Pentecost"
  },{
    "book":"Acts",
    "chapter" : 3,
    "chapterheading" : "Lame Man Healed"
  },{
    "book":"Acts",
    "chapter" : 4,
    "chapterheading" : "The First Persecution"
  },{
    "book":"Acts",
    "chapter" : 5,
    "chapterheading" : "Ananias and Sapphira"
  },{
    "book":"Acts",
    "chapter" : 6,
    "chapterheading" : "Stephen and Martyrdom"
  },{
    "book":"Acts",
    "chapter" : 8,
    "chapterheading" : "Philip and the Eunuch"
  },{
    "book":"Acts",
    "chapter" : 9,
    "chapterheading" : "Saul's Conversion on the Damascus Road"
  },{
    "book":"Acts",
    "chapter" : 10,
    "chapterheading" : "Peter and Cornelius"
  },{
    "book":"Acts",
    "chapter" : 11,
    "chapterheading" : "Peter Vindicates Ministry to the Gentiles"
  },{
    "book":"Acts",
    "chapter" : 12,
    "chapterheading" : "Peter in Prison"
  },{
    "book":"Acts",
    "chapter" : 13,
    "chapterheading" : "First Missionary Journey"
  },{
    "book":"Acts",
    "chapter" : 14,
    "chapterheading" : "First Missionary Journey"
  },{
    "book":"Acts",
    "chapter" : 15,
    "chapterheading" : "Jerusalem Council"
  },{
    "book":"Acts",
    "chapter" : 16,
    "chapterheading" : "Second Missionary Journey"
  },{
    "book":"Acts",
    "chapter" : 17,
    "chapterheading" : "Second Missionary Journey"
  },{
    "book":"Acts",
    "chapter" : 18,
    "chapterheading" : "Second Missionary Journey"
  },{
    "book":"Acts",
    "chapter" : 19,
    "chapterheading" : "Third Missionary Journey"
  },{
    "book":"Acts",
    "chapter" : 20,
    "chapterheading" : "Third Missionary Journey"
  },{
    "book":"Acts",
    "chapter" : 21,
    "chapterheading" : "Paul Arrives at Jerusalem"
  },{
    "book":"Romans",
    "chapter" : 1,
    "chapterheading" : "All Gentiles Under Sin"
  },{
    "book":"Romans",
    "chapter" : 2,
    "chapterheading" : "All Jews Under Sin"
  },{
    "book":"Romans",
    "chapter" : 3,
    "chapterheading" : "All Have Sinned"
  },{
    "book":"Romans",
    "chapter" : 4,
    "chapterheading" : "Justification by Faith"
  },{
    "book":"Romans",
    "chapter" : 5,
    "chapterheading" : "Justification by Faith"
  },{
    "book":"Romans",
    "chapter" : 6,
    "chapterheading" : "The Christian Walk"
  },{
    "book":"Romans",
    "chapter" : 7,
    "chapterheading" : "The Christian Walk"
  },{
    "book":"Romans",
    "chapter" : 8,
    "chapterheading" : "The Christian Walk"
  },{
    "book":"Romans",
    "chapter" : 9,
    "chapterheading" : "Israel in Prophecy"
  },{
    "book":"Romans",
    "chapter" : 10,
    "chapterheading" : "Israel in Failure"
  },{
    "book":"Romans",
    "chapter" : 11,
    "chapterheading" : "Israel in Success"
  },{
    "book":"Romans",
    "chapter" : 12,
    "chapterheading" : "Living Sacrifice"
  },{
    "book":"Romans",
    "chapter" : 13,
    "chapterheading" : "Love Your Neighbor"
  },{
    "book":"1 Corinthians",
    "chapter" : 1,
    "chapterheading" : "Divisions"
  },{
    "book":"1 Corinthians",
    "chapter" : 2,
    "chapterheading" : "Natural, Carnal, Spiritual Man"
  },{
    "book":"1 Corinthians",
    "chapter" : 3,
    "chapterheading" : "Judgement Seat of Christ"
  },{
    "book":"1 Corinthians",
    "chapter" : 4,
    "chapterheading" : "Judging Each Other"
  },{
    "book":"1 Corinthians",
    "chapter" : 5,
    "chapterheading" : "Immorality Rebuked"
  },{
    "book":"1 Corinthians",
    "chapter" : 6,
    "chapterheading" : "Lawsuits With Christians"
  },{
    "book":"1 Corinthians",
    "chapter" : 7,
    "chapterheading" : "Christian Marriage"
  },{
    "book":"1 Corinthians",
    "chapter" : 8,
    "chapterheading" : "Meats Offered to Idols"
  },{
    "book":"1 Corinthians",
    "chapter" : 9,
    "chapterheading" : "Castaway Chapter"
  },{
    "book":"1 Corinthians",
    "chapter" : 10,
    "chapterheading" : "Israel's Example"
  },{
    "book":"1 Corinthians",
    "chapter" : 11,
    "chapterheading" : "Conduct at the Lord's Supper"
  },{
    "book":"1 Corinthians",
    "chapter" : 12,
    "chapterheading" : "Spiritual Gifts"
  },{
    "book":"2 Corinthians",
    "chapter" : 1,
    "chapterheading" : ""
  },{
    "book":"2 Corinthians",
    "chapter" : 2,
    "chapterheading" : "Immoral Man Cleansed"
  },{
    "book":"2 Corinthians",
    "chapter" : 3,
    "chapterheading" : "The Glorious Ministry"
  },{
    "book":"2 Corinthians",
    "chapter" : 4,
    "chapterheading" : "The Suffering Ministry"
  },{
    "book":"2 Corinthians",
    "chapter" : 5,
    "chapterheading" : "The Reconciling Ministry"
  },{
    "book":"2 Corinthians",
    "chapter" : 6,
    "chapterheading" : "The Separated Ministry"
  },{
    "book":"2 Corinthians",
    "chapter" : 7,
    "chapterheading" : "The Heart of Paul"
  },{
    "book":"2 Corinthians",
    "chapter" : 8,
    "chapterheading" : "Regarding Money"
  },{
    "book":"2 Corinthians",
    "chapter" : 9,
    "chapterheading" : "Cheerful Giving"
  },{
    "book":"2 Corinthians",
    "chapter" : 10,
    "chapterheading" : "Divine and Human Viewpoint"
  },{
    "book":"2 Corinthians",
    "chapter" : 11,
    "chapterheading" : "The Boasting of Paul"
  },{
    "book":"1 Thessalonians",
    "chapter" : 1,
    "chapterheading" : "Work of Faith, Labor, Steadfastness"
  },{
    "book":"1 Thessalonians",
    "chapter" : 2,
    "chapterheading" : "Testimony of Paul"
  },{
    "book":"1 Thessalonians",
    "chapter" : 3,
    "chapterheading" : "Timothy's Report to Paul"
  },{
    "book":"1 Thessalonians",
    "chapter" : 4,
    "chapterheading" : "Rapture Chapter"
  },{
    "book":"1 Thessalonians",
    "chapter" : 5,
    "chapterheading" : "Sudden and Unexpected Destruction"
  },{
    "book":"2 Thessalonians",
    "chapter" : 1,
    "chapterheading" : "Comfort in Persecution"
  },{
    "book":"2 Thessalonians",
    "chapter" : 2,
    "chapterheading" : "The Man of Sin Revealed"
  },{
    "book":"2 Thessalonians",
    "chapter" : 3,
    "chapterheading" : "Disorderly and Busybody Christians"
  },{
    "book":"1 Timothy",
    "chapter" : 1,
    "chapterheading" : "Legalism and Unsound Teaching"
  },{
    "book":"1 Timothy",
    "chapter" : 2,
    "chapterheading" : "Prayer for Leaders"
  },{
    "book":"1 Timothy",
    "chapter" : 3,
    "chapterheading" : "Qualifications for Pastors"
  },{
    "book":"1 Timothy",
    "chapter" : 4,
    "chapterheading" : "Doctrine of Demons"
  },{
    "book":"1 Timothy",
    "chapter" : 5,
    "chapterheading" : "Ministry to Widows"
  },{
    "book":"1 Timothy",
    "chapter" : 6,
    "chapterheading" : "Christians in the World"
  },{
    "book":"2 Timothy",
    "chapter" : 1,
    "chapterheading" : "Lois, Eunice, Timothy"
  },{
    "book":"2 Timothy",
    "chapter" : 2,
    "chapterheading" : "A Good Soldier Studies"
  },{
    "book":"2 Timothy",
    "chapter" : 3,
    "chapterheading" : "Verbal Inspiration"
  },{
    "book":"2 Timothy",
    "chapter" : 4,
    "chapterheading" : "Paul before Death"
  },{
    "book":"Titus",
    "chapter" : 1,
    "chapterheading" : "Good Deeds Align with Faith"
  },{
    "book":"Titus",
    "chapter" : 2,
    "chapterheading" : "Doing Good for the Gospel"
  },{
    "book":"Titus",
    "chapter" : 3,
    "chapterheading" : "Saved to do Good"
  },{
    "book":"Philemon",
    "chapter" : 1,
    "chapterheading" : "Effective Christianity"
  },{
    "book":"Hebrews",
    "chapter" : 1,
    "chapterheading" : "Christ Above Angels"
  },{
    "book":"Hebrews",
    "chapter" : 2,
    "chapterheading" : "Christ Made Human"
  },{
    "book":"Hebrews",
    "chapter" : 3,
    "chapterheading" : "Warning Against Unbelief"
  },{
    "book":"Hebrews",
    "chapter" : 4,
    "chapterheading" : "The Faith-Rest Technique"
  },{
    "book":"Hebrews",
    "chapter" : 5,
    "chapterheading" : "Christ the Hight Priest"
  },{
    "book":"Hebrews",
    "chapter" : 6,
    "chapterheading" : "Spiritual Maturity"
  },{
    "book":"Hebrews",
    "chapter" : 7,
    "chapterheading" : "Melchizedek and Aaronic Priesthood"
  },{
    "book":"Hebrews",
    "chapter" : 8,
    "chapterheading" : "Old and New Covenant"
  },{
    "book":"James",
    "chapter" : 1,
    "chapterheading" : "Ask For Wisdom"
  },{
    "book":"James",
    "chapter" : 2,
    "chapterheading" : "Faith and Works"
  },{
    "book":"James",
    "chapter" : 3,
    "chapterheading" : "Tongue and Heart"
  },{
    "book":"James",
    "chapter" : 4,
    "chapterheading" : "The Rebuke of Worldliness"
  },{
    "book":"James",
    "chapter" : 5,
    "chapterheading" : "Patience, Prayer, and Richness"
  },{
    "book":"1 Peter",
    "chapter" : 1,
    "chapterheading" : "Trials of Faith"
  },{
    "book":"1 Peter",
    "chapter" : 2,
    "chapterheading" : "Suffering with Jesus"
  },{
    "book":"1 Peter",
    "chapter" : 3,
    "chapterheading" : "Negative Husband"
  },{
    "book":"1 Peter",
    "chapter" : 4,
    "chapterheading" : "Trials and Suffering"
  },{
    "book":"1 Peter",
    "chapter" : 5,
    "chapterheading" : "Christian Leadership"
  },{
    "book":"2 Peter",
    "chapter" : 1,
    "chapterheading" : "Great Promises"
  },{
    "book":"2 Peter",
    "chapter" : 2,
    "chapterheading" : "False Teachers"
  },{
    "book":"2 Peter",
    "chapter" : 3,
    "chapterheading" : "Burning of Heavens and Earth"
  },{
    "book":"1 John",
    "chapter" : 1,
    "chapterheading" : "Christ is Light"
  },{
    "book":"1 John",
    "chapter" : 2,
    "chapterheading" : "Christ is Light"
  },{
    "book":"1 John",
    "chapter" : 3,
    "chapterheading" : "Christ is Love"
  },{
    "book":"1 John",
    "chapter" : 4,
    "chapterheading" : "Christ is Love"
  },{
    "book":"2 John",
    "chapter" : 1,
    "chapterheading" : "Truth and Error"
  },{
    "book":"3 John",
    "chapter" : 1,
    "chapterheading" : "Hospitality"
  },{
    "book":"Jude",
    "chapter" : 1,
    "chapterheading" : "Contending for the Faith"
  },{
    "book":"Revelation",
    "chapter" : 1,
    "chapterheading" : "Introduction"
  },{
    "book":"Revelation",
    "chapter" : 2,
    "chapterheading" : "Seven Churches"
  },{
    "book":"Revelation",
    "chapter" : 3,
    "chapterheading" : "Seven Churches"
  },{
    "book":"Revelation",
    "chapter" : 4,
    "chapterheading" : "Heavens Opened"
  },{
    "book":"Revelation",
    "chapter" : 5,
    "chapterheading" : "Seven Seals"
  },{
    "book":"Revelation",
    "chapter" : 6,
    "chapterheading" : "Seven Seals Opened"
  },{
    "book":"Revelation",
    "chapter" : 7,
    "chapterheading" : "Sealing of the 144,000"
  },{
    "book":"Revelation",
    "chapter" : 8,
    "chapterheading" : "Seven Trumpets"
  },{
    "book":"Revelation",
    "chapter" : 9,
    "chapterheading" : "Trumpets Opened"
  },{
    "book":"Revelation",
    "chapter" : 10,
    "chapterheading" : "The Book and the Angel"
  },{
    "book":"Revelation",
    "chapter" : 11,
    "chapterheading" : "Two Witnesses"
  },{
    "book":"Revelation",
    "chapter" : 12,
    "chapterheading" : "Seven Personages"
  },{
    "book":"Revelation",
    "chapter" : 13,
    "chapterheading" : "Beast of the Earth and Sea"
  },{
    "book":"Revelation",
    "chapter" : 14,
    "chapterheading" : "Vision of the Lamb"
  },{
    "book":"Revelation",
    "chapter" : 15,
    "chapterheading" : "Seven Vials"
  },{
    "book":"Revelation",
    "chapter" : 16,
    "chapterheading" : "Vials Opened"
  },{
    "book":"Revelation",
    "chapter" : 17,
    "chapterheading" : "Religious Babylon"
  },{
    "book":"Revelation",
    "chapter" : 18,
    "chapterheading" : "Commercial Babylon"
  },{
    "book":"Revelation",
    "chapter" : 19,
    "chapterheading" : "Second Advent"
  },{
    "book":"Revelation",
    "chapter" : 20,
    "chapterheading" : "Great White Throne"
  },{
    "book":"Revelation",
    "chapter" : 21,
    "chapterheading" : "The New Heaven, Earth, Jerusalem"
  },{
    "book":"Revelation",
    "chapter" : 22,
    "chapterheading" : "Eternity"
  }
]
